Chr	GeneID	Name	Start	End	Length	SNPs	Tests	SNP.name	SNP.pos	SNP.MAF	SNP.R2	chi2	n.tot	n.better	pval	isBest
1	GeneID:1	testGene	1	20	20	20	19.9733	rs1	1	0.497701	1	2.86874	64	10	0.15625	0
1	GeneID:1	testGene	1	20	20	20	19.9733	rs2	2	0.0703221	1	12.5424	24233	10	0.00041266	0
1	GeneID:1	testGene	1	20	20	20	19.9733	rs3	3	0.736208	1	6.77568	822	10	0.0121655	0
1	GeneID:1	testGene	1	20	20	20	19.9733	rs4	4	0.698207	1	6.40075	1519	10	0.00658328	0
1	GeneID:1	testGene	1	20	20	20	19.9733	rs5	5	0.196536	1	15.7189	95386	10	0.000104837	1
1	GeneID:1	testGene	1	20	20	20	19.9733	rs6	6	0.225147	1	1.65568	87	10	0.114943	0
1	GeneID:1	testGene	1	20	20	20	19.9733	rs7	7	0.782408	1	7.45358	1513	10	0.00660939	0
1	GeneID:1	testGene	1	20	20	20	19.9733	rs8	8	0.46804	1	11.3079	10709	10	0.000933794	0
1	GeneID:1	testGene	1	20	20	20	19.9733	rs9	9	0.624006	1	0.309029	20	10	0.5	0
1	GeneID:1	testGene	1	20	20	20	19.9733	rs10	10	0.850528	1	0.0619466	20	15	0.75	0
1	GeneID:1	testGene	1	20	20	20	19.9733	rs11	11	0.524464	1	0.636672	20	10	0.5	0
1	GeneID:1	testGene	1	20	20	20	19.9733	rs12	12	0.328617	1	0.89188	20	11	0.55	0
1	GeneID:1	testGene	1	20	20	20	19.9733	rs13	13	0.160289	1	0.00791397	20	19	0.95	0
1	GeneID:1	testGene	1	20	20	20	19.9733	rs14	14	0.161095	1	0.239495	21	10	0.47619	0
1	GeneID:1	testGene	1	20	20	20	19.9733	rs15	15	0.859618	1	2.21442	66	10	0.151515	0
1	GeneID:1	testGene	1	20	20	20	19.9733	rs16	16	0.211961	1	5.23768	604	10	0.0165563	0
1	GeneID:1	testGene	1	20	20	20	19.9733	rs17	17	0.36564	1	0.0277771	20	18	0.9	0
1	GeneID:1	testGene	1	20	20	20	19.9733	rs18	18	0.551452	1	0.000247278	20	19	0.95	0
1	GeneID:1	testGene	1	20	20	20	19.9733	rs19	19	0.882309	1	0.241469	20	12	0.6	0
1	GeneID:1	testGene	1	20	20	20	19.9733	rs20	20	0.668926	1	5.75838	441	10	0.0226757	0
