SNP_ID	C0	C1	RSS	f_stat	log10BF	MAF	R2	eSampleSize	nGene
rs1	-0.024879	0.026687	0.999641	2.868738	-0.485764	0.497701	1.000000	3999.915434	1
rs2	-0.013671	0.108833	0.998434	12.542427	1.840940	0.070322	1.000000	1046.030436	1
rs3	0.026550	-0.046699	0.999154	6.775684	0.410499	0.736208	1.000000	3107.292492	1
rs4	0.028125	-0.043308	0.999200	6.400750	0.310539	0.698207	1.000000	3371.423762	1
rs5	-0.029301	0.078499	0.998039	15.718898	2.371500	0.196536	1.000000	2526.553611	1
rs6	-0.009330	0.024368	0.999793	1.655680	-0.669262	0.225147	1.000000	2791.293254	1
rs7	0.024290	-0.052566	0.999069	7.453576	0.584933	0.782408	1.000000	2723.931545	1
rs8	-0.047718	0.053095	0.998588	11.307892	1.335362	0.468040	1.000000	3983.656934	1
rs9	-0.005099	0.009012	0.999961	0.309029	-1.025975	0.624006	1.000000	3753.960191	1
rs10	0.000015	0.005610	0.999992	0.061947	-0.937558	0.850528	1.000000	2034.081939	1
rs11	-0.010651	0.012647	0.999920	0.636672	-0.964962	0.524464	1.000000	3990.424203	1
rs12	-0.008805	0.015861	0.999888	0.891880	-0.885059	0.328617	1.000000	3530.045877	1
rs13	0.002266	-0.001923	0.999999	0.007914	-0.967206	0.160289	1.000000	2153.542984	1
rs14	0.005025	-0.010566	0.999970	0.239495	-0.917913	0.161095	1.000000	2162.294416	1
rs15	-0.007702	0.034499	0.999723	2.214416	-0.464209	0.859618	1.000000	1930.798305	1
rs16	0.020674	-0.043639	0.999346	5.237683	0.104407	0.211961	1.000000	2672.536552	1
rs17	0.003641	-0.002739	0.999997	0.027777	-1.080804	0.365640	1.000000	3711.158246	1
rs18	0.001868	-0.000247	1.000000	0.000247	-1.106556	0.551452	1.000000	3957.643067	1
rs19	0.004453	-0.012211	0.999970	0.241469	-0.857426	0.882309	1.000000	1661.437256	1
rs20	-0.025248	0.040255	0.999281	5.758383	0.163756	0.668926	1.000000	3543.424104	1
