Chr	GeneID	Name	Start	End	Length	SNPs	Tests	SNP.name	SNP.pos	SNP.MAF	SNP.R2	K	SSM	BIC	f.stat	R2
1	GeneID:1	testGene	1	20	20	20	19.9733	NONE	-	-	-	0	0	0	0	-
1	GeneID:1	testGene	1	20	20	20	19.9733	rs5	5	0.196536	1	1	0.0019615	1.28464	15.7189	0
1	GeneID:1	testGene	1	20	20	20	19.9733	rs2	2	0.0703221	1	2	0.00362591	2.13639	12.5424	0.000749462
1	GeneID:1	testGene	1	20	20	20	19.9733	rs8	8	0.46804	1	3	0.00506452	2.55102	11.3079	0.000154157
1	GeneID:1	testGene	1	20	20	20	19.9733	SUMMARY	-	-	-	3	0.00506452	2.55102	13.5674	-
